[0625/142548.746:ERROR:crash_report_database_win.cc(428)] unexpected header
[0625/143726.658:ERROR:crash_report_database_win.cc(428)] unexpected header
[0625/144128.368:ERROR:crash_report_database_win.cc(428)] unexpected header
[0625/165431.219:ERROR:crash_report_database_win.cc(428)] unexpected header
[0625/165926.971:ERROR:crash_report_database_win.cc(428)] unexpected header
[0625/170112.796:ERROR:crash_report_database_win.cc(428)] unexpected header
